,subject,fluid_intelligence
0,train_sub0,1.1056407839890774
1,train_sub1,-10.325529359765746
2,train_sub2,-4.79026691647992
3,train_sub3,-1.5083125341730437
4,train_sub4,4.7990138443639125
5,train_sub5,2.791103765614679
6,train_sub6,0.2350588180659372
7,train_sub7,-0.6312054893839303
8,train_sub8,2.8259865584579025
9,train_sub9,0.913926392163873
10,train_sub10,2.5986724069804126
11,train_sub11,-1.4985766947566077
12,train_sub12,-9.252726111295992
13,train_sub13,-0.1656674221194514
14,train_sub14,-3.7720484048069753
15,train_sub15,7.34086105402992
16,train_sub16,-0.6032304897903789
17,train_sub17,4.15413397964608
18,train_sub18,4.491085757220539
19,train_sub19,6.2801833084644265
20,train_sub20,5.698666659353172
21,train_sub21,2.7176533742938247
22,train_sub22,-6.366133652740999
23,train_sub23,6.032913937820759
24,train_sub24,-6.489777345891298
25,train_sub25,2.4427362802802364
26,train_sub26,0.7139155305604845
27,train_sub27,4.1184401730554825
28,train_sub28,-4.624533895980825
29,train_sub29,1.0413961324248469
30,train_sub30,2.0073106889203274
31,train_sub31,2.465813315759906
32,train_sub32,-0.8362317778301289
33,train_sub33,-1.16435524438279
34,train_sub34,2.1368400983339484
35,train_sub35,1.1115806499857683
36,train_sub36,6.279804352565311
37,train_sub37,3.0995845920409337
38,train_sub38,0.5017390844763057
39,train_sub39,-4.025386883683558
40,train_sub40,-2.661001658949875
41,train_sub41,-2.810518370243038
42,train_sub42,4.277854952865454
43,train_sub43,-0.698352495202414
44,train_sub44,-6.070946608483197
45,train_sub45,-2.207585055936839
46,train_sub46,5.547763688612825
47,train_sub47,-1.1569524872843573
48,train_sub48,0.8936646426469039
49,train_sub49,-0.5406241800345484
50,train_sub50,-7.731440102393009
51,train_sub51,-9.071676867218173
52,train_sub52,-4.565666654916711
53,train_sub53,1.7338190771784951
54,train_sub54,6.274067677353592
55,train_sub55,-3.602798162795919
56,train_sub56,-3.2898836020577917
57,train_sub57,2.4053167263885484
58,train_sub58,4.49212070939566
59,train_sub59,-8.612343267561407
60,train_sub60,-0.5316232585643661
61,train_sub61,5.445570966642983
62,train_sub62,-5.083014826663643
63,train_sub63,6.806198803195063
64,train_sub64,5.815898180075985
65,train_sub65,2.745476847132373
66,train_sub66,1.042728928413645
67,train_sub67,-5.8467424790043125
68,train_sub68,3.4849570172376723
69,train_sub69,1.0192022697546221
70,train_sub70,-0.26241034676211683
71,train_sub71,3.7785732983669327
72,train_sub72,-9.733148158780732
73,train_sub73,-9.240079451334594
74,train_sub74,-7.902807080420455
75,train_sub75,1.753475962636962
76,train_sub76,-1.3281199250229108
77,train_sub77,1.5907286040560678
78,train_sub78,-5.098641022798297
79,train_sub79,-7.267605094707093
80,train_sub80,4.787259700731205
81,train_sub81,-1.3262415306143147
82,train_sub82,-7.157002876472774
83,train_sub83,-3.6939741675917688
84,train_sub84,-6.874335151354799
85,train_sub85,4.496435241600274
86,train_sub86,2.257408467298969
87,train_sub87,3.908243181867242
88,train_sub88,3.5019780309797888
89,train_sub89,-5.356071115197977
90,train_sub90,4.730367089925899
91,train_sub91,2.2487497069334523
92,train_sub92,4.342648224117816
93,train_sub93,-3.306948664279961
94,train_sub94,-3.378611655756231
95,train_sub95,6.433903067060733
96,train_sub96,0.1260010543961343
97,train_sub97,-7.5913786721468135
98,train_sub98,3.0591254387883424
99,train_sub99,0.4370340051132615
100,train_sub100,-3.4927283776466282
101,train_sub101,1.5346355578153918
102,train_sub102,-6.166784961860383
103,train_sub103,5.600956969012191
104,train_sub104,2.234906000082109
105,train_sub105,-6.83715270895812
106,train_sub106,-9.154611263854793
107,train_sub107,1.4020331680889377
108,train_sub108,2.43466674053575
109,train_sub109,4.693758846574852
110,train_sub110,-0.14457945022165575
111,train_sub111,3.4569254317183713
112,train_sub112,3.1005199942596775
113,train_sub113,3.5746471816918604
114,train_sub114,7.013128631804445
115,train_sub115,3.42195465178548
116,train_sub116,-4.367982565353788
117,train_sub117,4.883960900487676
118,train_sub118,-0.16147167587937616
119,train_sub119,4.461799815084362
120,train_sub120,-0.33675994705184564
121,train_sub121,-4.820147174112307
122,train_sub122,2.4081320438698874
123,train_sub123,0.9189763142290417
124,train_sub124,1.9486230154025108
125,train_sub125,-1.4666092233810915
126,train_sub126,3.4738578673472276
127,train_sub127,-8.216046176580253
128,train_sub128,3.8602968532311372
129,train_sub129,7.322780258450781
130,train_sub130,-3.028937335340398
131,train_sub131,-9.976062847019708
132,train_sub132,1.723576276885467
133,train_sub133,-5.824194269023899
134,train_sub134,5.808977384267269
135,train_sub135,-5.914850793167494
136,train_sub136,-2.2665435457780223
137,train_sub137,2.6602623860143453
138,train_sub138,4.251648950415763
139,train_sub139,-8.947755919448788
140,train_sub140,-3.328278619939553
141,train_sub141,-6.249617773801539
142,train_sub142,-0.1646972038613015
143,train_sub143,-7.1004497310068615
144,train_sub144,-2.2568078849999793
145,train_sub145,5.136888808564684
146,train_sub146,3.0820085067808556
147,train_sub147,-3.952295121316048
148,train_sub148,-8.649470031662537
149,train_sub149,0.6569884755183253
150,train_sub150,3.5849383066783957
151,train_sub151,4.602623822273255
152,train_sub152,3.438024353751672
153,train_sub153,-2.3456808280041983
154,train_sub154,1.460201828126003
155,train_sub155,-7.885742545884366
156,train_sub156,1.6526043723919557
157,train_sub157,-7.7621494745814985
158,train_sub158,-0.5434906995847193
159,train_sub159,4.760567635945673
160,train_sub160,-1.0532253951884591
161,train_sub161,1.478948718745544
162,train_sub162,2.0320973931081667
163,train_sub163,5.343450569931644
164,train_sub164,-11.160323087450095
165,train_sub165,3.844741334872964
166,train_sub166,3.600951600114179
167,train_sub167,2.1516614950903747
168,train_sub168,4.166842403830891
169,train_sub169,1.0276468238089933
170,train_sub170,-7.134703231637246
171,train_sub171,-0.4844618657955735
172,train_sub172,0.7327657970636849
173,train_sub173,2.380666823653673
174,train_sub174,4.508234308466644
175,train_sub175,0.9722972676944153
176,train_sub176,0.598105053706405
177,train_sub177,1.4959332340539468
178,train_sub178,-0.33092684835207464
179,train_sub179,-5.1512119005191295
180,train_sub180,3.2040003329446876
181,train_sub181,-5.927528801228204
182,train_sub182,4.56280686230221
183,train_sub183,4.8025650363507495
184,train_sub184,4.446525624852889
185,train_sub185,-1.9371393797642007
186,train_sub186,-4.388832231756332
187,train_sub187,-10.105359475698961
188,train_sub188,5.439128061042638
189,train_sub189,3.312409601788918
190,train_sub190,3.830719608752915
191,train_sub191,2.436963763667329
192,train_sub192,5.511454574673792
193,train_sub193,-0.5801174599560959
194,train_sub194,0.4843533462914493
195,train_sub195,-5.48891438186098
196,train_sub196,1.7758383220428726
197,train_sub197,0.3738485619348211
198,train_sub198,-5.068925651947396
199,train_sub199,2.7683940747333082
200,train_sub200,-8.870737105702666
201,train_sub201,1.9239866637190204
202,train_sub202,5.472596346027661
203,train_sub203,3.1748409985097297
204,train_sub204,-6.598490981077823
205,train_sub205,5.210538933900633
206,train_sub206,-7.008689875747443
207,train_sub207,2.5945194600996615
208,train_sub208,5.565373775094372
209,train_sub209,1.7307825835774011
210,train_sub210,5.1243483197333575
211,train_sub211,3.111584768893536
212,train_sub212,-2.040773215595067
213,train_sub213,1.607089803964513
214,train_sub214,-8.588027100856614
215,train_sub215,-11.317036737704562
216,train_sub216,-3.1324241908816894
217,train_sub217,-8.62462909039671
218,train_sub218,-10.57142866743419
219,train_sub219,5.4051092860863665
220,train_sub220,-3.4332768830323737
221,train_sub221,-0.9838940478814209
222,train_sub222,-0.11946886771506016
223,train_sub223,-4.780302029684682
224,train_sub224,4.064076206867149
225,train_sub225,-1.0809966030163345
226,train_sub226,-2.699809475718446
227,train_sub227,1.2513960359487903
228,train_sub228,-4.482969259819628
229,train_sub229,5.664445424234231
230,train_sub230,5.8920723275283
231,train_sub231,-0.8593091061185731
232,train_sub232,3.1043240089822266
233,train_sub233,-0.8900904283797999
234,train_sub234,4.304110460883244
235,train_sub235,2.5619717164175597
236,train_sub236,3.164666375894889
237,train_sub237,2.716787198620242
238,train_sub238,-1.18203345441351
239,train_sub239,-2.4194673536365947
240,train_sub240,-1.7339107768419808
241,train_sub241,-0.3801508853489537
242,train_sub242,1.4885452340623466
243,train_sub243,4.46757997994883
244,train_sub244,-3.8293135164272716
245,train_sub245,1.160387527031535
246,train_sub246,2.68019922627818
247,train_sub247,-2.404579971715819
248,train_sub248,-5.302204027342299
249,train_sub249,-1.9417363715715332
250,train_sub250,4.667003231338821
251,train_sub251,0.8507492294787653
252,train_sub252,1.5353468316629417
253,train_sub253,2.3500125183248013
254,train_sub254,3.519442159646779
255,train_sub255,2.917165293391781
256,train_sub256,2.899130902374722
257,train_sub257,4.367474574654757
258,train_sub258,3.5027081240073112
259,train_sub259,4.773436234772571
260,train_sub260,1.0649398185902683
261,train_sub261,5.767198556903665
262,train_sub262,3.4591718062710513
263,train_sub263,-2.0116262494550803
264,train_sub264,-6.363443720456912
265,train_sub265,-8.906174829321287
266,train_sub266,3.990676094722609
267,train_sub267,2.65505813923199
268,train_sub268,-3.359549232330087
269,train_sub269,4.744507733124159
270,train_sub270,9.036987767852057
271,train_sub271,5.096085746516849
272,train_sub272,0.5363327766133814
273,train_sub273,3.1027617753088172
274,train_sub274,-3.846787881814839
275,train_sub275,-0.6512868882573137
276,train_sub276,-9.23567296146485
277,train_sub277,0.9276427776780558
278,train_sub278,4.40381467295899
279,train_sub279,4.277250434921845
280,train_sub280,1.8611255975916805
281,train_sub281,-6.188379011030612
282,train_sub282,-9.525064740860849
283,train_sub283,4.32579989713625
284,train_sub284,2.313514524812234
285,train_sub285,-1.5289872098229242
286,train_sub286,4.065192009142869
287,train_sub287,-9.109374091368085
288,train_sub288,5.322138545831383
289,train_sub289,6.11652441203592
290,train_sub290,1.44368942251662
291,train_sub291,-3.6417279746100135
292,train_sub292,2.433093976926287
293,train_sub293,-6.4116635243861015
294,train_sub294,-4.362617709832527
295,train_sub295,4.788578569169488
296,train_sub296,-7.638930808894262
297,train_sub297,5.103302361774508
298,train_sub298,4.8826983290645956
299,train_sub299,0.9062740446214406
300,train_sub300,3.0094559572138877
301,train_sub301,-4.229551725676863
302,train_sub302,3.468857997901182
303,train_sub303,3.501487591841567
304,train_sub304,-9.662774516291922
305,train_sub305,4.517279786043801
306,train_sub306,-5.592115289683981
307,train_sub307,-4.560860517571877
308,train_sub308,5.067564054441462
309,train_sub309,2.9248792406133575
310,train_sub310,-10.385527455690042
311,train_sub311,-5.892470055120711
312,train_sub312,2.843708221687855
313,train_sub313,3.695410179859106
314,train_sub314,-12.753943658905584
315,train_sub315,2.378849666547751
316,train_sub316,4.331432696201498
317,train_sub317,0.7276691847712833
318,train_sub318,-6.3004030850381625
319,train_sub319,4.340328737198973
320,train_sub320,-1.1070225432460337
321,train_sub321,-4.054116432670838
322,train_sub322,-6.826458634064746
323,train_sub323,7.049732891574946
324,train_sub324,0.5082875940292233
325,train_sub325,3.225080322623512
326,train_sub326,0.7817516789153593
327,train_sub327,-0.021708563503150202
328,train_sub328,-9.568081705030044
329,train_sub329,3.7708374838652254
330,train_sub330,-2.1923502431365414
331,train_sub331,-0.5545714626779059
332,train_sub332,6.267069108767881
333,train_sub333,1.2285534161328808
334,train_sub334,6.552546324130745
335,train_sub335,-0.29303480693897654
336,train_sub336,-1.7374104193800122
337,train_sub337,-8.18699694705461
338,train_sub338,-0.13363414732816636
339,train_sub339,-2.1963511302015597
340,train_sub340,4.401721765200918
341,train_sub341,-7.548362100181414
342,train_sub342,6.226844922394513
343,train_sub343,-5.293365645763984
344,train_sub344,5.849418936244984
345,train_sub345,-4.322087511541788
346,train_sub346,-0.8331118799627291
347,train_sub347,4.7741881921336145
348,train_sub348,-5.61154376451065
349,train_sub349,-5.08277292209398
350,train_sub350,-0.3308116827937724
351,train_sub351,-3.304457877949222
352,train_sub352,-1.6331672092226839
353,train_sub353,1.8185413843983227
354,train_sub354,1.9946479093256144
355,train_sub355,-5.088084209009271
356,train_sub356,-4.443274221565392
357,train_sub357,2.1373685492879666
358,train_sub358,2.035045418426108
359,train_sub359,3.4303733625315047
360,train_sub360,7.703931925902083
361,train_sub361,-6.455761052926675
362,train_sub362,0.49748593836967103
363,train_sub363,4.523312695678946
364,train_sub364,-1.3362701862103066
365,train_sub365,-3.1542762297749505
366,train_sub366,5.0046375513257715
367,train_sub367,-10.14538401040819
368,train_sub368,3.302626075447435
369,train_sub369,0.39130478359464504
370,train_sub370,-6.2969603865715165
371,train_sub371,6.862591219369012
372,train_sub372,0.3812789524617095
373,train_sub373,1.3752208216688508
374,train_sub374,-1.7473743081871174
375,train_sub375,2.1080832386638306
376,train_sub376,6.484651124090973
377,train_sub377,-4.677208398596557
378,train_sub378,-9.043487268942151
379,train_sub379,-1.245271171175343
380,train_sub380,-1.790066861718861
381,train_sub381,-0.6941413154018399
382,train_sub382,3.5653607543329144
383,train_sub383,0.18811036452268226
384,train_sub384,-1.4910695173908142
385,train_sub385,7.166294171189225
386,train_sub386,-1.7788465441843204
387,train_sub387,3.681281016985178
388,train_sub388,-5.102669986710236
389,train_sub389,4.522126737531906
390,train_sub390,-9.486760966351845
391,train_sub391,0.038533130370471014
392,train_sub392,3.2294976538816798
393,train_sub393,2.0670261688920277
394,train_sub394,2.758171542484341
395,train_sub395,-0.9204087519386555
396,train_sub396,-7.128444702687609
397,train_sub397,3.061116289903115
398,train_sub398,2.774899797940538
399,train_sub399,-10.470843558969701
400,train_sub400,1.8597839086228731
401,train_sub401,-6.938982883507155
402,train_sub402,-1.9786779327094308
403,train_sub403,-1.5152712899474956
404,train_sub404,2.41295788721507
405,train_sub405,5.005622062090955
406,train_sub406,-2.8258088893907516
407,train_sub407,-1.140030029866658
408,train_sub408,-5.11951734516871
409,train_sub409,1.8742660511769813
410,train_sub410,5.5555356656684065
411,train_sub411,2.0804689926649527
412,train_sub412,2.6934869092013685
413,train_sub413,0.8670565080127588
414,train_sub414,-0.7338999756551203
415,train_sub415,3.1483201915393995
416,train_sub416,-0.8428146504371306
417,train_sub417,0.32941358764263384
418,train_sub418,-0.06714369670927134
419,train_sub419,2.8436310156580262
420,train_sub420,2.6517041388673803
421,train_sub421,-4.232660834602804
422,train_sub422,0.9623380955222274
423,train_sub423,-9.552924312458892
424,train_sub424,-8.49706808401132
425,train_sub425,0.46027577805742226
426,train_sub426,2.4571088170059667
427,train_sub427,-4.469250887592498
428,train_sub428,5.72720185323174
429,train_sub429,4.207127276927594
430,train_sub430,1.4654388578164124
431,train_sub431,-3.7839136922945897
432,train_sub432,-1.8257618292361073
433,train_sub433,-3.072625054598154
434,train_sub434,-4.505513147694099
435,train_sub435,4.463507759148442
436,train_sub436,0.3052866431736341
437,train_sub437,-8.306579515614661
438,train_sub438,4.2116875364479895
439,train_sub439,7.2558395426415245
440,train_sub440,0.4778859824980728
441,train_sub441,0.500252643636319
442,train_sub442,-2.335873826954117
443,train_sub443,3.626871864147489
444,train_sub444,0.012482152003791214
445,train_sub445,1.518708529988018
446,train_sub446,5.006248577121138
447,train_sub447,1.608600879150945
448,train_sub448,3.7086000868223294
449,train_sub449,-4.061827614968458
450,train_sub450,6.9161599652828905
451,train_sub451,-1.3844736154341781
452,train_sub452,-8.900782698645475
453,train_sub453,0.1306803090523072
454,train_sub454,1.4638018353123776
455,train_sub455,-7.028331832804817
456,train_sub456,-0.716559355539637
457,train_sub457,-0.2045471036471458
458,train_sub458,3.2755931495537105
459,train_sub459,2.53079978191456
460,train_sub460,0.9191319414690895
461,train_sub461,1.3094218249288971
462,train_sub462,3.9637748068136744
463,train_sub463,-2.056779740254406
464,train_sub464,2.1284365354313763
465,train_sub465,4.258978854450326
466,train_sub466,3.94369044825212
467,train_sub467,4.094205934954108
468,train_sub468,-8.84733308634042
469,train_sub469,2.118762663648752
470,train_sub470,0.871114858408216
471,train_sub471,3.6186117148501253
472,train_sub472,-0.3490597457230393
473,train_sub473,0.7714019800211886
474,train_sub474,0.7890653202353874
475,train_sub475,4.869704756550565
476,train_sub476,-8.230459885335037
477,train_sub477,2.212406845406175
478,train_sub478,-5.478018227194765
479,train_sub479,2.1786008402306436
480,train_sub480,-1.5752345134057393
481,train_sub481,-3.8936111814241787
482,train_sub482,-2.269928744152857
483,train_sub483,0.12022151065599473
484,train_sub484,4.858663750055111
485,train_sub485,-0.7902342329712297
486,train_sub486,-0.9487498383416657
487,train_sub487,1.8991411310797446
488,train_sub488,-4.192999447203917
489,train_sub489,-2.085409271008153
490,train_sub490,3.4159891680433674
491,train_sub491,5.227048370957476
492,train_sub492,-5.017718526312741
493,train_sub493,0.8271886968009099
494,train_sub494,0.19602351606346247
495,train_sub495,2.2909857449601105
496,train_sub496,5.72150819026821
497,train_sub497,2.785606237731166
498,train_sub498,3.701409797673513
499,train_sub499,-4.598651653648652
500,train_sub500,-7.16421505402263
501,train_sub501,4.162600247888797
502,train_sub502,-0.4699158270562904
503,train_sub503,3.755824550711024
504,train_sub504,-2.904771536081867
505,train_sub505,-3.150820861713008
506,train_sub506,3.805252532622882
507,train_sub507,3.465004625664104
508,train_sub508,2.467392669660999
509,train_sub509,-7.642457562377693
510,train_sub510,1.6576041414979379
511,train_sub511,7.309489433170153
512,train_sub512,-1.2972184673482765
513,train_sub513,4.593054294259442
514,train_sub514,-3.80530845262701
515,train_sub515,-2.728765638097247
516,train_sub516,-5.241218507581266
517,train_sub517,-5.39746482846185
518,train_sub518,-9.204035517333004
519,train_sub519,1.9218701036875991
520,train_sub520,-1.2196856342928086
521,train_sub521,-3.277840446747815
522,train_sub522,1.6727897762510011
523,train_sub523,-5.484466284720854
524,train_sub524,-7.726216558365103
525,train_sub525,6.795896028822817
526,train_sub526,-5.1279576430874485
527,train_sub527,5.890311500654544
528,train_sub528,4.377662726475897
529,train_sub529,-2.69925066648927
530,train_sub530,-0.5124864314686342
531,train_sub531,-2.1555276616784695
532,train_sub532,3.7716444364586117
533,train_sub533,-3.6783250765472175
534,train_sub534,2.315210565130485
535,train_sub535,2.6867389273147992
536,train_sub536,4.967993639399346
537,train_sub537,0.8234206305438434
538,train_sub538,-6.392577127695553
539,train_sub539,1.6672608674385714
540,train_sub540,-6.947593049612449
541,train_sub541,3.503863554836993
542,train_sub542,2.902805282652242
543,train_sub543,1.3968587091277627
544,train_sub544,-1.1080386175964705
545,train_sub545,2.151043623693262
546,train_sub546,5.191218035968227
547,train_sub547,-1.956755492977539
548,train_sub548,2.7190256395305354
549,train_sub549,2.6001949853415205
550,train_sub550,4.271160928555247
551,train_sub551,-1.8875074227097741
552,train_sub552,3.3310021938037195
553,train_sub553,1.4499167185662785
554,train_sub554,2.0665959212438274
555,train_sub555,0.9312987775447041
556,train_sub556,-4.476604957943339
557,train_sub557,6.162948323543976
558,train_sub558,4.809096755850753
559,train_sub559,1.1278858793858468
560,train_sub560,4.629845736055493
561,train_sub561,1.5179041372854485
562,train_sub562,-2.0500239247878262
563,train_sub563,8.325088717138021
564,train_sub564,-2.029510196292751
565,train_sub565,-5.901258692241004
566,train_sub566,2.3866017767179173
567,train_sub567,2.222880014491512
568,train_sub568,4.609261899613486
569,train_sub569,3.50819825652124
570,train_sub570,1.7480686861011208
571,train_sub571,1.7624218599262385
572,train_sub572,2.460181871446018
573,train_sub573,-0.06383918835208036
574,train_sub574,-7.19620767730575
575,train_sub575,-8.017755471159418
576,train_sub576,2.9883094037202227
577,train_sub577,-2.9453301944120938
578,train_sub578,5.433902838970496
579,train_sub579,-8.524653870073276
580,train_sub580,-3.2950366200199745
581,train_sub581,-1.6779870017902994
582,train_sub582,0.7841992929587445
583,train_sub583,-2.1905747638926307
584,train_sub584,1.2811301961164006
585,train_sub585,7.644145210599801
586,train_sub586,2.1887946171679893
587,train_sub587,5.617920677989712
588,train_sub588,1.3160863182291251
589,train_sub589,1.60474775023879
590,train_sub590,4.728193471842648
591,train_sub591,-3.312597967459425
592,train_sub592,0.8512980647083026
593,train_sub593,-6.869815848179808
594,train_sub594,-5.51011329259201
595,train_sub595,0.8524056983540831
596,train_sub596,0.28950031496266604
597,train_sub597,-11.081647831484617
598,train_sub598,2.0289582055837663
599,train_sub599,-0.5978380394589564
600,train_sub600,-0.4054448617142512
601,train_sub601,4.291464499738069
602,train_sub602,-4.61188821217976
603,train_sub603,-0.1359383555731526
604,train_sub604,4.526407336873165
605,train_sub605,-2.151241907541884
606,train_sub606,2.9456727920419965
607,train_sub607,-2.7252396278639424
608,train_sub608,3.9687654817329907
609,train_sub609,3.8596570861374957
610,train_sub610,4.509519765707154
611,train_sub611,-3.62699252899975
612,train_sub612,-4.8005911329920075
613,train_sub613,4.019923422755525
614,train_sub614,-8.86837516774365
615,train_sub615,2.0474935018954596
616,train_sub616,-0.28350979719242986
617,train_sub617,1.0569010932228693
618,train_sub618,8.360053268825896
619,train_sub619,4.391771439640436
620,train_sub620,3.782838224366138
621,train_sub621,6.316944391933639
622,train_sub622,3.112372058131516
623,train_sub623,1.1885822864236388
624,train_sub624,-5.899181846922261
625,train_sub625,1.805808203689839
626,train_sub626,-7.290142046421545
627,train_sub627,1.7429385542517082
628,train_sub628,5.083962289757828
629,train_sub629,-4.4726836112245785
630,train_sub630,3.4488108335110326
631,train_sub631,-4.376370049926297
632,train_sub632,3.9499190409122065
633,train_sub633,-8.496119931923054
634,train_sub634,1.3721747499235768
635,train_sub635,3.3441896798150452
636,train_sub636,6.069194600987117
637,train_sub637,-1.2098959006438683
638,train_sub638,8.107116034688083
639,train_sub639,-8.115350595193743
640,train_sub640,1.4396233702847923
641,train_sub641,-3.998350582339306
642,train_sub642,3.5633490911946595
643,train_sub643,1.3320479887252077
644,train_sub644,4.547535675736057
645,train_sub645,-9.185736952007069
646,train_sub646,-0.41789690559377135
647,train_sub647,-0.799901522199626
648,train_sub648,3.3740174077230094
649,train_sub649,-6.56221020888119
650,train_sub650,-1.621282864755564
651,train_sub651,-5.033144790393962
652,train_sub652,6.8235051522405925
653,train_sub653,-8.311985526345524
654,train_sub654,2.0552588631559274
655,train_sub655,9.728111434018306
656,train_sub656,4.621800777642436
657,train_sub657,-3.1847550916310396
658,train_sub658,7.326554461362264
659,train_sub659,2.4322303882305896
660,train_sub660,-1.5667939569373672
661,train_sub661,-3.1946229254244756
662,train_sub662,-8.815200077120352
663,train_sub663,-3.9033460644282556
664,train_sub664,-2.7214168277508755
665,train_sub665,-8.7906352936226
666,train_sub666,5.052432596910128
667,train_sub667,-8.122726089668063
668,train_sub668,3.5523542297892767
669,train_sub669,3.0505126114900207
670,train_sub670,1.8717047326051883
671,train_sub671,1.0326682932426756
672,train_sub672,-3.8867806700815972
673,train_sub673,4.470221002049044
674,train_sub674,-5.554829240045569
675,train_sub675,-3.1197441046601497
676,train_sub676,0.04533373073294911
677,train_sub677,-4.530885499696497
678,train_sub678,-6.071031186691329
679,train_sub679,4.572575441496081
680,train_sub680,5.923647108489991
681,train_sub681,5.812958530221238
682,train_sub682,5.065240855796731
683,train_sub683,0.8530995132639365
684,train_sub684,5.352590922466362
685,train_sub685,-0.4103877129345328
686,train_sub686,4.621266687751337
687,train_sub687,3.167407711989938
688,train_sub688,4.8073771825226075
689,train_sub689,2.9776631147112376
690,train_sub690,2.6833902154936737
691,train_sub691,-7.242613459762822
692,train_sub692,0.04969803700927322
693,train_sub693,2.0857185221067205
694,train_sub694,-1.6614022166348938
695,train_sub695,-3.9891129959236586
696,train_sub696,-0.889161382679589
697,train_sub697,-1.084815099976062
698,train_sub698,-5.700809854765691
699,train_sub699,-0.5844109044987249
700,train_sub700,-9.192444570303255
701,train_sub701,-7.870608460682043
702,train_sub702,2.1980570509686803
703,train_sub703,1.5362743757139086
704,train_sub704,4.805970262058576
705,train_sub705,2.373654786694985
706,train_sub706,-2.969189227492123
707,train_sub707,5.416239780345558
708,train_sub708,-4.185403201642593
709,train_sub709,4.031211787672049
710,train_sub710,3.4805952499434945
711,train_sub711,2.4673854969835176
712,train_sub712,4.751003888224616
713,train_sub713,0.22394987326029536
714,train_sub714,-1.517910829729189
715,train_sub715,-0.2028601614149892
716,train_sub716,0.8370325665100822
717,train_sub717,-4.887060831659902
718,train_sub718,-8.472027919019556
719,train_sub719,4.354945323967428
720,train_sub720,1.6713254670258522
721,train_sub721,-0.6953597142245105
722,train_sub722,-6.675622424596078
723,train_sub723,6.728703202416831
724,train_sub724,3.8207189101147225
725,train_sub725,-6.058643134323702
726,train_sub726,4.797121972827291
727,train_sub727,-10.748507610156068
728,train_sub728,3.5789462549546105
729,train_sub729,-9.390048988069697
730,train_sub730,2.6842235055563997
731,train_sub731,-4.773867542803565
732,train_sub732,3.1283179766588454
733,train_sub733,-3.9821492130202643
734,train_sub734,0.6007347674638694
735,train_sub735,4.0566469014920905
736,train_sub736,2.2478916764485604
737,train_sub737,1.737293123513652
738,train_sub738,4.182674027620042
739,train_sub739,-0.6231448267058664
740,train_sub740,1.857411573421743
741,train_sub741,1.2138462342145218
742,train_sub742,-0.5192497369989191
743,train_sub743,-7.659692049930605
744,train_sub744,4.384740406461965
745,train_sub745,2.792447790963891
746,train_sub746,-1.8109147689253717
747,train_sub747,5.583832649765661
748,train_sub748,-8.669899689629652
749,train_sub749,2.84129357125817
750,train_sub750,-7.075093187772644
751,train_sub751,1.6121185060518393
752,train_sub752,-2.403352335537921
753,train_sub753,3.0278567604300903
754,train_sub754,2.6939152333149536
755,train_sub755,-2.7369066818703516
756,train_sub756,0.3045378289613119
757,train_sub757,1.6004527060026277
758,train_sub758,7.844853340479133
759,train_sub759,-2.9587313087708154
760,train_sub760,-3.9344488559382373
761,train_sub761,2.476845904628206
762,train_sub762,2.0479653310594443
763,train_sub763,3.5678588450080326
764,train_sub764,1.1064797144298737
765,train_sub765,2.009491989140969
766,train_sub766,-1.8070109750896535
767,train_sub767,-5.13068225591622
768,train_sub768,-8.996609980203928
769,train_sub769,0.35094610294547834
770,train_sub770,2.0129816821416213
771,train_sub771,-1.0200477551411282
772,train_sub772,3.122699333608441
773,train_sub773,-0.7827232052302548
774,train_sub774,4.6951818161114005
775,train_sub775,-4.747614167987386
776,train_sub776,6.044260616669906
777,train_sub777,-2.614341188780676
778,train_sub778,2.630253801078169
779,train_sub779,-9.465462873772807
780,train_sub780,-1.3964773773087842
781,train_sub781,-1.5623939973827774
782,train_sub782,-0.11178299121510094
783,train_sub783,-2.423452224536888
784,train_sub784,-8.70508027494747
785,train_sub785,-4.753493310491834
786,train_sub786,1.3802437122084186
787,train_sub787,-1.2475043412255715
788,train_sub788,3.993374323041607
789,train_sub789,-2.120661450958302
790,train_sub790,7.143325778982522
791,train_sub791,5.310709580359536
792,train_sub792,6.426781341770846
793,train_sub793,4.410183536841215
794,train_sub794,3.397923400717282
795,train_sub795,4.668921588865949
796,train_sub796,-1.8642414213025376
797,train_sub797,5.029529768530477
798,train_sub798,2.0226347206305135
799,train_sub799,1.1692088040166055
